{
    "title": "Cooking",
    "category": "cooking",
    "lang": "en_US",
    "description": "",
    "words": [
        "8x8 pan",
        "9x13 pan",
        "air frier",
        "al dente",
        "bake",
        "baking powder",
        "baking soda",
        "basil",
        "baste",
        "batter",
        "beat",
        "blanch",
        "blend",
        "blender",
        "boil",
        "bowl",
        "breakfast",
        "brine",
        "broil",
        "brown",
        "brunch",
        "bundt pan",
        "cake mold",
        "cake stand",
        "can opener",
        "caramelize",
        "cheesecloth",
        "chop",
        "cinnamon",
        "coat",
        "colander",
        "cook book",
        "cookie cutter",
        "cookie sheet",
        "cooling rack",
        "cumin",
        "cup",
        "dash",
        "deep-fry",
        "dinner",
        "double broiler",
        "drain",
        "dredge",
        "drizzle",
        "dutch oven",
        "egg timer",
        "emulsify",
        "flour",
        "food processor",
        "fork",
        "freeze",
        "freezer",
        "frying pan",
        "garnish",
        "glaze",
        "grate",
        "grate",
        "grater",
        "grill",
        "hand mixer",
        "herbs de provence",
        "icing",
        "ingredients",
        "kitchen shears",
        "knead",
        "knife",
        "ladle",
        "lid",
        "lunch",
        "mandoline",
        "measure",
        "melt",
        "microplane",
        "microwave",
        "mince",
        "mix",
        "mixing bowl",
        "mortar and pestle",
        "muffin tin",
        "olive oil",
        "oregano",
        "oven mitt",
        "oven",
        "pan",
        "panini press",
        "pantry",
        "paprika",
        "parboil",
        "pastry blender",
        "peel",
        "peeler",
        "pepper",
        "pinch",
        "pipe",
        "plate",
        "poach",
        "pot",
        "preheat",
        "pressure cooker",
        "rack",
        "range",
        "recipe",
        "reduce",
        "refrigerator",
        "rice cooker",
        "rolling pin",
        "salad spinner",
        "salt shaker",
        "salt",
        "saute",
        "sear",
        "season",
        "sifter",
        "simmer",
        "skewer",
        "slice",
        "spatula",
        "spice",
        "springform pan",
        "stand mixer",
        "steam",
        "stew",
        "stir",
        "tablespoon",
        "teaspoon",
        "thaw",
        "thermometer",
        "thyme",
        "toaster oven",
        "toaster",
        "tongs",
        "vegetable oil",
        "waffle iron",
        "whip",
        "whisk",
        "wisk",
        "wok",
        "wooden spoon",
        "yeast",
        "zest"
    ]
}
