{
    "title": "Occupations",
    "category": "occupations",
    "lang": "en_US",
    "description": "",
    "words": [
        "accountant",
        "actor",
        "administrative assistant",
        "aerospace engineer",
        "air traffic controller",
        "anesthesiologist",
        "architect",
        "artists",
        "baker",
        "bank teller",
        "bartender",
        "bus boy",
        "bus driver",
        "butcher",
        "carpenter",
        "captain",
        "cashier",
        "chemical engineer",
        "chemist",
        "chief",
        "chiropractor",
        "civil engineer",
        "clerk",
        "coach",
        "computer technician",
        "construction worker",
        "cook",
        "correctional officer",
        "counselor",
        "counselor",
        "crossing guard",
        "customer service",
        "database administrator",
        "dental hygienist",
        "dentist",
        "designer",
        "detective",
        "director",
        "dishwasher",
        "dispatcher",
        "doctor",
        "editor",
        "electrical engineer",
        "electrician",
        "engineer",
        "executive",
        "farmer",
        "financial analyst",
        "firefighter",
        "garbage collector",
        "general",
        "groundskeeper",
        "hairdresser",
        "handy man",
        "host/hostess",
        "influencer",
        "inspector",
        "interior designer",
        "intern",
        "janitor",
        "judge",
        "landscaper",
        "lawyer",
        "legislator",
        "librarian",
        "lifeguard",
        "locomotive engineer",
        "maid",
        "mail carrier",
        "mail sorter",
        "manager",
        "massage therapist",
        "mechanic",
        "mechanical engineer",
        "messenger",
        "musician",
        "nurse",
        "painter",
        "paralegal",
        "pastor",
        "pediatrician",
        "pharmacist",
        "pharmacy technician",
        "photographer",
        "physical therapist",
        "pilot",
        "plumber",
        "police",
        "politician",
        "president",
        "priest",
        "private investigator",
        "professor",
        "real estate agent",
        "receptionist",
        "roofer",
        "sailor",
        "salesperson",
        "scientist",
        "security guard",
        "sheriff",
        "singer",
        "social worker",
        "software developer",
        "soldier",
        "supervisor",
        "surgeon",
        "surveyor",
        "tailor",
        "teacher",
        "technical writer",
        "telemarketer",
        "tester",
        "therapist",
        "trainer",
        "translator",
        "travel agent",
        "truck driver",
        "valet",
        "veterinarian",
        "waiter/waitress",
        "welder",
        "zookeeper"
    ]
}
