{
    "title": "Esports",
    "category": "sports",
    "lang": "ca_ES",
    "description": "",
    "words": [
        "as",
        "avantatge",
        "tir amb arc",
        "assistir",
        "atleta",
        "tornar",
        "contraatacar",
        "revés",
        "roba-pilotes",
        "pilota",
        "tour",
        "base",
        "bàsquet",
        "cistella",
        "bat",
        "banc",
        "bloc",
        "bitlles",
        "guants de boxa",
        "braça",
        "medalla de bronze",
        "cop blau",
        "papallona",
        "capità",
        "targetes",
        "agafar",
        "campió",
        "campionat",
        "rellotge",
        "entrenador",
        "cricket",
        "curling",
        "anar en bicicleta",
        "dard",
        "dards",
        "defensor",
        "defensa",
        "camp de joc",
        "disc de golf",
        "desqualificat",
        "divisió",
        "doble falta",
        "doble joc",
        "selecció",
        "driblar",
        "zona final",
        "exercici",
        "enfrontament",
        "seguidors",
        "tanca",
        "porteria",
        "camp",
        "patinatge artístic",
        "futbol",
        "prèvia",
        "devantera",
        "perdre",
        "endavant",
        "joc brut",
        "tir lliure",
        "estil lliure",
        "punt de joc",
        "guants",
        "objectiu",
        "porter",
        "portador",
        "medalla d'or",
        "golf",
        "green",
        "gimnàstica",
        "mitja part",
        "handicap",
        "hat trick",
        "colpejar",
        "hoquei",
        "home run",
        "pinya",
        "infield",
        "entrada",
        "entrades",
        "intercepció",
        "xutar",
        "arrencada",
        "fer fora",
        "lacrosse",
        "carril",
        "disposició",
        "lliga",
        "regla de misericòrdia",
        "mulligan",
        "màxim golejador",
        "xarxa",
        "ofensa",
        "fora de camp",
        "fora",
        "al pal",
        "passar",
        "targeta",
        "tir de penal",
        "penal",
        "jugador",
        "eliminatòria",
        "punt",
        "piscina",
        "pràctica",
        "professional",
        "punt",
        "putter",
        "quart",
        "quarterback",
        "cursa",
        "rebot",
        "rècord",
        "esbarjo",
        "repeteix",
        "rem",
        "rugbi",
        "regla",
        "carrera",
        "sprint",
        "perill de sorra",
        "guardar",
        "puntuació",
        "esgrima",
        "temporada",
        "conjunt",
        "línia lateral",
        "medalla de plata",
        "esquiar",
        "esmaixada",
        "bufetada",
        "snowboard",
        "pilota de futbol",
        "futbol",
        "espectadors",
        "espiral",
        "estadi",
        "pal",
        "davanter",
        "passi",
        "sumo",
        "navegar",
        "natació",
        "abordar",
        "equip",
        "tee",
        "tennis",
        "llançar",
        "empat",
        "desempat",
        "temps de sortida",
        "llançar",
        "toc",
        "pista",
        "victòria",
        "volley",
        "voleibol",
        "falca",
        "lluita",
        "iarda"
    ]
}
